<?xml version="1.0" encoding="utf-8"?>
<!-- Generator: Adobe Illustrator 18.0.0, SVG Export Plug-In . SVG Version: 6.00 Build 0)  -->
<!DOCTYPE svg PUBLIC "-//W3C//DTD SVG 1.1//EN" "http://www.w3.org/Graphics/SVG/1.1/DTD/svg11.dtd">
<svg version="1.1" id="Vrstva_1" xmlns="http://www.w3.org/2000/svg" xmlns:xlink="http://www.w3.org/1999/xlink" x="0px" y="0px"
	 width="21.9px" height="21.9px" viewBox="0 0 21.9 21.9" enable-background="new 0 0 21.9 21.9" xml:space="preserve">
<g>
	<defs>
		<rect id="SVGID_1_" x="6.5" y="6.2" width="8.9" height="9.6"/>
	</defs>
	<clipPath id="SVGID_2_">
		<use xlink:href="#SVGID_1_"  overflow="visible"/>
	</clipPath>
	<line clip-path="url(#SVGID_2_)" fill="none" stroke="#3C3C3B" stroke-miterlimit="10" x1="3.3" y1="11" x2="18.7" y2="11"/>
</g>
</svg>
