<?xml version="1.0" encoding="utf-8"?>
<!-- Generator: Adobe Illustrator 18.0.0, SVG Export Plug-In . SVG Version: 6.00 Build 0)  -->
<!DOCTYPE svg PUBLIC "-//W3C//DTD SVG 1.1//EN" "http://www.w3.org/Graphics/SVG/1.1/DTD/svg11.dtd">
<svg version="1.1" id="Vrstva_1" xmlns="http://www.w3.org/2000/svg" xmlns:xlink="http://www.w3.org/1999/xlink" x="0px" y="0px"
	 width="59.8px" height="59.8px" viewBox="0 0 59.8 59.8" enable-background="new 0 0 59.8 59.8" xml:space="preserve">
<g>
	<g>
		<path fill="#3C3C3B" d="M30,6.1c13.2,0,23.9,10.7,23.9,23.9c0,13.2-10.7,23.9-23.9,23.9C16.8,53.8,6.1,43.1,6.1,30
			C6.1,16.8,16.8,6.1,30,6.1 M30,4.2C15.7,4.2,4.2,15.7,4.2,30c0,14.2,11.5,25.8,25.8,25.8c14.2,0,25.8-11.5,25.8-25.8
			C55.7,15.7,44.2,4.2,30,4.2L30,4.2z"/>
	</g>
</g>
<line fill="none" stroke="#3C3C3B" stroke-width="1.9" stroke-miterlimit="10" x1="55" y1="30" x2="29.9" y2="30"/>
<line fill="none" stroke="#3C3C3B" stroke-width="1.9" stroke-miterlimit="10" x1="30" y1="29.7" x2="12.2" y2="12"/>
<line fill="none" stroke="#3C3C3B" stroke-width="1.9" stroke-miterlimit="10" x1="30" y1="29.7" x2="12.2" y2="47.5"/>
</svg>
