<?xml version="1.0" encoding="utf-8"?>
<!-- Generator: Adobe Illustrator 18.0.0, SVG Export Plug-In . SVG Version: 6.00 Build 0)  -->
<!DOCTYPE svg PUBLIC "-//W3C//DTD SVG 1.1//EN" "http://www.w3.org/Graphics/SVG/1.1/DTD/svg11.dtd">
<svg version="1.1" id="Vrstva_1" xmlns="http://www.w3.org/2000/svg" xmlns:xlink="http://www.w3.org/1999/xlink" x="0px" y="0px"
	 width="11.1px" height="5.4px" viewBox="0 0 11.1 5.4" enable-background="new 0 0 11.1 5.4" xml:space="preserve">
<g>
	<defs>
		<rect id="SVGID_1_" x="-0.2" y="-4.4" width="11.3" height="9.8"/>
	</defs>
	<clipPath id="SVGID_2_">
		<use xlink:href="#SVGID_1_"  overflow="visible"/>
	</clipPath>
	
		<line clip-path="url(#SVGID_2_)" fill="none" stroke="#3C3C3B" stroke-width="1.4" stroke-miterlimit="10" x1="5" y1="0.5" x2="11.4" y2="6.8"/>
	
		<line clip-path="url(#SVGID_2_)" fill="none" stroke="#3C3C3B" stroke-width="1.4" stroke-miterlimit="10" x1="6" y1="0.5" x2="-0.3" y2="6.8"/>
</g>
</svg>
