<?xml version="1.0" encoding="utf-8"?>
<!-- Generator: Adobe Illustrator 18.0.0, SVG Export Plug-In . SVG Version: 6.00 Build 0)  -->
<!DOCTYPE svg PUBLIC "-//W3C//DTD SVG 1.1//EN" "http://www.w3.org/Graphics/SVG/1.1/DTD/svg11.dtd">
<svg version="1.1" id="Vrstva_1" xmlns="http://www.w3.org/2000/svg" xmlns:xlink="http://www.w3.org/1999/xlink" x="0px" y="0px"
	 width="59.8px" height="59.8px" viewBox="0 0 59.8 59.8" enable-background="new 0 0 59.8 59.8" xml:space="preserve">
<g>
	<g>
		<g>
			<path fill="#3C3C3B" d="M30,6.1c13.2,0,23.9,10.7,23.9,23.9S43.2,53.9,30,53.9C16.8,53.8,6.1,43.1,6.1,30
				C6.1,16.8,16.8,6.1,30,6.1 M30,4.2C15.7,4.2,4.2,15.7,4.2,30c0,14.2,11.5,25.8,25.8,25.8c14.2,0,25.8-11.5,25.8-25.8
				C55.7,15.7,44.2,4.2,30,4.2L30,4.2z"/>
		</g>
	</g>
	<g>
		<path fill="#3C3C3B" d="M38.4,24.9v7h-17v-7H38.4 M39.8,23.5H20v9.8h19.8V23.5L39.8,23.5z"/>
	</g>
	<g>
		<g>
			<path fill="#3C3C3B" d="M31.3,32.9v6.6l-1.4,1l-1.3-1v-6.6H31.3 M32.3,31.9h-4.7v8.4l2.3,1.6l2.4-1.6V31.9L32.3,31.9z"/>
		</g>
	</g>
	<polyline fill="none" stroke="#3C3C3B" stroke-width="1.2" stroke-miterlimit="10" points="8.2,43 26.7,43 29.9,45.6 33.2,43 
		51.5,43 	"/>
	<g>
		<g>
			<path fill="#3C3C3B" d="M30,6.1c3.7,0,7.4,0.9,10.7,2.5V23H19.2V8.6C22.5,7,26.2,6.1,30,6.1 M30,4.2c-4.6,0-8.9,1.2-12.7,3.3
				v17.4h25.2V7.4C38.8,5.4,34.5,4.2,30,4.2L30,4.2z"/>
		</g>
	</g>
</g>
</svg>
