<?xml version="1.0" encoding="utf-8"?>
<!-- Generator: Adobe Illustrator 18.0.0, SVG Export Plug-In . SVG Version: 6.00 Build 0)  -->
<!DOCTYPE svg PUBLIC "-//W3C//DTD SVG 1.1//EN" "http://www.w3.org/Graphics/SVG/1.1/DTD/svg11.dtd">
<svg version="1.1" id="Vrstva_1" xmlns="http://www.w3.org/2000/svg" xmlns:xlink="http://www.w3.org/1999/xlink" x="0px" y="0px"
	 width="16.3px" height="16.3px" viewBox="0 0 16.3 16.3" enable-background="new 0 0 16.3 16.3" xml:space="preserve">
<path fill="#3D3D3C" d="M13.1,8.2c0,2.7-2.2,4.9-4.9,4.9c-2.7,0-4.9-2.2-4.9-4.9c0-0.3,0-0.6,0.1-0.9H0v6.6c0,1.4,1.1,2.6,2.5,2.6
	h11.2c1.4,0,2.5-1.1,2.5-2.6V7.2H13C13.1,7.5,13.1,7.8,13.1,8.2z M13.8,0H2.5C1.1,0,0,1.1,0,2.6v2.8h4.1c0.9-1.3,2.4-2.1,4-2.1
	c1.7,0,3.1,0.8,4,2.1h4.1V2.6C16.3,1.1,15.2,0,13.8,0z M15,3.2c0,0.3-0.2,0.5-0.5,0.5h-1.4c-0.3,0-0.5-0.2-0.5-0.5V1.8
	c0-0.3,0.2-0.5,0.5-0.5h1.4c0.3,0,0.5,0.2,0.5,0.5V3.2z M11.2,8.2c0-1.7-1.4-3-3-3c-1.7,0-3,1.4-3,3c0,1.7,1.4,3,3,3
	C9.8,11.2,11.2,9.8,11.2,8.2z"/>
</svg>
