<?xml version="1.0" encoding="utf-8"?>
<!-- Generator: Adobe Illustrator 18.0.0, SVG Export Plug-In . SVG Version: 6.00 Build 0)  -->
<!DOCTYPE svg PUBLIC "-//W3C//DTD SVG 1.1//EN" "http://www.w3.org/Graphics/SVG/1.1/DTD/svg11.dtd">
<svg version="1.1" id="Vrstva_1" xmlns="http://www.w3.org/2000/svg" xmlns:xlink="http://www.w3.org/1999/xlink" x="0px" y="0px"
	 width="59.8px" height="59.8px" viewBox="0 0 59.8 59.8" enable-background="new 0 0 59.8 59.8" xml:space="preserve">
<g>
	<g>
		<g>
			<path fill="#8f8f8f" stroke="#8f8f8f" stroke-width="0.25" stroke-miterlimit="10" d="M29.9,6.6L37.1,17c4.1,5.7,3,8.5-2.6,14
				c-0.7,0.7-1.9,1.9-3,3.1c-0.4,0.4-1,0.7-1.6,0.7s-1.2-0.2-1.6-0.7c-1.1-1.1-2.3-2.3-3-3.1c-5.5-5.5-6.7-8.3-2.5-14.1L29.9,6.6
				 M29.9,3.9l-8.4,12.2c-4.8,6.7-2.8,10.4,2.7,16c0.7,0.7,1.9,1.9,3,3c0.7,0.8,1.7,1.1,2.7,1.1s2-0.4,2.7-1.1c1.1-1.1,2.3-2.3,3-3
				c5.5-5.5,7.6-9.2,2.7-16L29.9,3.9L29.9,3.9z"/>
		</g>
	</g>
	<g>
		<g>
			<path fill="#8f8f8f" stroke="#8f8f8f" stroke-width="0.25" stroke-miterlimit="10" d="M54.5,34.1l-3.6,11.7
				c-1.4,4.9-4,6.5-10.5,6.5c-0.6,0-1.2,0-1.8,0c-0.5,0-1.4-0.1-2.3-0.2c-0.6-0.1-1.2-0.1-1.7-0.2c-0.6-0.1-1.1-0.3-1.5-0.8
				s-0.5-1-0.5-1.6c0.1-0.7,0.2-1.4,0.2-2c0.1-0.8,0.2-1.5,0.3-2.1c1-7,3.4-9.7,9.2-10.4L54.5,34.1 M56.6,32.4l-14.4,1
				c-7.1,0.9-9.5,4.8-10.5,11.7c-0.1,1-0.3,2.6-0.5,4.1c-0.3,2,1.2,3.9,3.3,4.1c1.5,0.2,3.2,0.4,4.1,0.4c0.7,0,1.3,0,1.9,0
				c6.7,0,10.2-1.6,11.9-7.6L56.6,32.4L56.6,32.4z"/>
		</g>
	</g>
	<g>
		<g>
			<path fill="#8f8f8f" stroke="#8f8f8f" stroke-width="0.25" stroke-miterlimit="10" d="M5.3,34.1l12.2,0.8
				c5.8,0.7,8.2,3.5,9.2,10.4c0.1,0.5,0.2,1.3,0.3,2.1c0.1,0.6,0.2,1.3,0.2,2c0.1,0.6-0.1,1.2-0.5,1.6c-0.4,0.5-0.9,0.8-1.5,0.8
				c-0.6,0.1-1.2,0.1-1.7,0.2c-0.9,0.1-1.7,0.2-2.3,0.2c-0.7,0-1.3,0-1.8,0c-6.5,0-9-1.6-10.5-6.6L5.3,34.1 M3.2,32.4l4.2,13.8
				c1.7,6,5.2,7.6,11.9,7.6c0.6,0,1.2,0,1.9,0c1,0,2.6-0.3,4.1-0.4c2.1-0.2,3.5-2.1,3.3-4.1c-0.2-1.5-0.4-3.1-0.5-4.1
				c-1-7-3.4-10.9-10.5-11.7L3.2,32.4L3.2,32.4z"/>
		</g>
	</g>
</g>
<line fill="none" stroke="#8f8f8f" stroke-width="1.2" stroke-linecap="round" stroke-linejoin="round" stroke-miterlimit="10" x1="29.9" y1="34.7" x2="29.9" y2="25.4"/>
<line fill="none" stroke="#8f8f8f" stroke-width="1.2" stroke-linecap="round" stroke-linejoin="round" stroke-miterlimit="10" x1="32.8" y1="51.4" x2="42.9" y2="44.1"/>
<line fill="none" stroke="#8f8f8f" stroke-width="1.2" stroke-linecap="round" stroke-linejoin="round" stroke-miterlimit="10" x1="27.1" y1="51.4" x2="17.1" y2="44.1"/>
</svg>
