<?xml version="1.0" encoding="utf-8"?>
<!-- Generator: Adobe Illustrator 18.0.0, SVG Export Plug-In . SVG Version: 6.00 Build 0)  -->
<!DOCTYPE svg PUBLIC "-//W3C//DTD SVG 1.1//EN" "http://www.w3.org/Graphics/SVG/1.1/DTD/svg11.dtd">
<svg version="1.1" id="Vrstva_1" xmlns="http://www.w3.org/2000/svg" xmlns:xlink="http://www.w3.org/1999/xlink" x="0px" y="0px"
	 width="24px" height="20.7px" viewBox="0 0 24 20.7" enable-background="new 0 0 24 20.7" xml:space="preserve">
<g>
	<path fill="#3C3C3B" d="M20.7,1.9l-4.3,7.5L12,16.9L7.7,9.4L3.3,1.9H12H20.7 M24,0H12H0l6,10.4l6,10.4l6-10.4L24,0L24,0z"/>
</g>
<rect id="_x3C_Řez_x3E__35_" x="0" y="-1.6" fill="none" width="24" height="24"/>
</svg>
